{
    "jobs": [
       {
          "eFolderID": "0900007000000000000000002502716",
          "eFolderName": "LPFR-UAT-1044344",
          "eCreationTime": "Thu Oct 25 2019 11:23:00 GMT+0100 (British Summer Time)",
          "eEntryTime": "Thu Oct 25 2019 11:23:00 GMT+0100 (British Summer Time)",
          "txtPRNNumber": "5566f0fc-e9be-484c-95d7-34c5a70aabc0",
          "txtVehicleRegistrationNumber": "DP778WJ",
          "txtVehicleDriverName": "SAMUEL FLORIAN",
          "txtVehicleModel": "A4 AVANT BUSINE",
          "txtSupplierName": "A.I.G.",
          "txtDropOffTime": "09:00",
          "txtVehicleVINNumber": "WAUZZZ8K1FA105332"
       },
       {
          "eFolderID": "0900000000000000000000002502723",
          "eFolderName": "LPFR-UAT-1044345",
          "eCreationTime": "Thu Oct 25 2019 12:23:00 GMT+0100 (British Summer Time)",
          "eEntryTime": "Thu Oct 25 2019 11:23:00 GMT+0100 (British Summer Time)",
          "txtPRNNumber": "5566f0fc-e9be-484c-95d7-34c5a70aabc0",
          "txtVehicleRegistrationNumber": "DZ067FT",
          "txtVehicleDriverName": "BENLAMINE YOUNES",
          "txtVehicleModel": "A4 AVANT BUSINE",
          "txtSupplierName": "A.I.G.",
          "txtDropOffTime": "09:15",
          "txtVehicleVINNumber": "WAUZZZ8K1FA105332"
       },
       {
          "eFolderID": "0900000000000000000000002502745",
          "eFolderName": "LPFR-UAT-1044347",
          "eCreationTime": "Thu Oct 25 2019 13:23:00 GMT+0100 (British Summer Time)",
          "eEntryTime": "Thu Oct 25 2019 11:23:00 GMT+0100 (British Summer Time)",
          "txtPRNNumber": "5566f0fc-e9be-484c-95d7-34c5a70aabc0",
          "txtVehicleRegistrationNumber": "DZ899JQ",
          "txtVehicleDriverName": "MAADOUNE AMAR",
          "txtVehicleModel": "A4 AVANT BUSINE",
          "txtSupplierName": "A.I.G.",
          "txtDropOffTime": "09:30",
          "txtVehicleVINNumber": "WAUZZZ8K1FA105332"
       },
       {
          "eFolderID": "0900000000000000000000002502747",
          "eFolderName": "LPFR-UAT-1044349",
          "eCreationTime": "Thu Oct 25 2019 14:23:00 GMT+0100 (British Summer Time)",
          "eEntryTime": "Thu Oct 25 2019 11:23:00 GMT+0100 (British Summer Time)",
          "txtPRNNumber": "5566f0fc-e9be-484c-95d7-34c5a70aabc0",
          "txtVehicleRegistrationNumber": "E53AJW",
          "txtVehicleDriverName": "FABRE JEROME",
          "txtVehicleModel": "A4 AVANT BUSINE",
          "txtSupplierName": "A.I.G.",
          "txtDropOffTime": "09:45",
          "txtVehicleVINNumber": "WAUZZZ8K1FA105332"
       },
       {
          "eFolderID": "0900000000000000000000002502749",
          "eFolderName": "LPFR-UAT-1044351",
          "eCreationTime": "Thu Oct 25 2019 15:23:00 GMT+0100 (British Summer Time)",
          "eEntryTime": "Thu Oct 25 2019 11:23:00 GMT+0100 (British Summer Time)",
          "txtPRNNumber": "5566f0fc-e9be-484c-95d7-34c5a70aabc0",
          "txtVehicleRegistrationNumber": "EH991QV",
          "txtVehicleDriverName": "SAMUEL FLORIAN",
          "txtVehicleModel": "A4 AVANT BUSINE",
          "txtSupplierName": "A.I.G.",
          "txtDropOffTime": "10:00",
          "txtVehicleVINNumber": "WAUZZZ8K1FA105332"
       },
       {
          "eFolderID": "0900000000000000000000002502750",
          "eFolderName": "LPFR-UAT-1044352",
          "eCreationTime": "Thu Oct 25 2019 16:23:00 GMT+0100 (British Summer Time)",
          "eEntryTime": "Thu Oct 25 2019 11:23:00 GMT+0100 (British Summer Time)",
          "txtPRNNumber": "5566f0fc-e9be-484c-95d7-34c5a70aabc0",
          "txtVehicleRegistrationNumber": "EP107KA",
          "txtVehicleDriverName": "BILLA PATRICK",
          "txtVehicleModel": "A4 AVANT BUSINE",
          "txtSupplierName": "A.I.G.",
          "txtDropOffTime": "11:35",
          "txtVehicleVINNumber": "WAUZZZ8K1FA105332"
       },
       {
          "eFolderID": "0900000000000000000000002502716",
          "eFolderName": "LPFR-UAT-1044353",
          "eCreationTime": "Thu Oct 25 2019 17:23:00 GMT+0100 (British Summer Time)",
          "eEntryTime": "Thu Oct 25 2019 11:23:00 GMT+0100 (British Summer Time)",
          "txtPRNNumber": "5566f0fc-e9be-484c-95d7-34c5a70aabc0",
          "txtVehicleRegistrationNumber": "DP778WJ",
          "txtVehicleDriverName": "EL GANA SLIMAN",
          "txtVehicleModel": "A4 AVANT BUSINE",
          "txtSupplierName": "A.I.G.",
          "txtDropOffTime": "12:03",
          "txtVehicleVINNumber": "WAUZZZ8K1FA105332"
       },
       {
          "eFolderID": "0900000000000000000000002502717",
          "eFolderName": "LPFR-UAT-1044354",
          "eCreationTime": "Thu Oct 26 2019 18:23:00 GMT+0100 (British Summer Time)",
          "eEntryTime": "Thu Oct 26 2019 11:23:00 GMT+0100 (British Summer Time)",
          "txtPRNNumber": "5566f0fc-e9be-484c-95d7-34c5a70aabc0",
          "txtVehicleRegistrationNumber": "EC196WP",
          "txtVehicleDriverName": "PREVOT PIERRE",
          "txtVehicleModel": "A4 AVANT BUSINE",
          "txtSupplierName": "A.I.G.",
          "txtDropOffTime": "12:03",
          "txtVehicleVINNumber": "WAUZZZ8K1FA105332"
       },
       {
          "eFolderID": "0900000000000000000000002502718",
          "eFolderName": "LPFR-UAT-1044355",
          "eCreationTime": "Thu Oct 27 2019 17:23:00 GMT+0100 (British Summer Time)",
          "eEntryTime": "Thu Oct 27 2019 11:23:00 GMT+0100 (British Summer Time)",
          "txtPRNNumber": "5566f0fc-e9be-484c-95d7-34c5a70aabc0",
          "txtVehicleRegistrationNumber": "ED001BB",
          "txtVehicleDriverName": "BAGNEUX",
          "txtVehicleModel": "A4 AVANT BUSINE",
          "txtSupplierName": "A.I.G.",
          "txtDropOffTime": "12:03",
          "txtVehicleVINNumber": "WAUZZZ8K1FA105332"
       },
       {
          "eFolderID": "0900000000000000000000002502719",
          "eFolderName": "LPFR-UAT-1044356",
          "eCreationTime": "Thu Oct 28 2019 17:23:00 GMT+0100 (British Summer Time)",
          "eEntryTime": "Thu Oct 28 2019 11:23:00 GMT+0100 (British Summer Time)",
          "txtPRNNumber": "5566f0fc-e9be-484c-95d7-34c5a70aabc0",
          "txtVehicleRegistrationNumber": "ED075HV",
          "txtVehicleDriverName": "BLOT jerome",
          "txtVehicleModel": "A4 AVANT BUSINE",
          "txtSupplierName": "A.I.G.",
          "txtDropOffTime": "12:03",
          "txtVehicleVINNumber": "WAUZZZ8K1FA105332"
       },
       {
          "eFolderID": "0900000000000000000000002502720",
          "eFolderName": "LPFR-UAT-1044357",
          "eCreationTime": "Thu Oct 29 2019 17:23:00 GMT+0100 (British Summer Time)",
          "eEntryTime": "Thu Oct 29 2019 11:23:00 GMT+0100 (British Summer Time)",
          "txtPRNNumber": "5566f0fc-e9be-484c-95d7-34c5a70aabc0",
          "txtVehicleRegistrationNumber": "ED096XD",
          "txtVehicleDriverName": "DURLET-BOUEXIERE ISABELLE",
          "txtVehicleModel": "A4 AVANT BUSINE",
          "txtSupplierName": "A.I.G.",
          "txtDropOffTime": "12:03",
          "txtVehicleVINNumber": "WAUZZZ8K1FA105332"
       },
       {
          "eFolderID": "0900000000000000000000002502721",
          "eFolderName": "LPFR-UAT-1044358",
          "eCreationTime": "Thu Oct 30 2019 17:23:00 GMT+0100 (British Summer Time)",
          "eEntryTime": "Thu Oct 30 2019 11:23:00 GMT+0100 (British Summer Time)",
          "txtPRNNumber": "5566f0fc-e9be-484c-95d7-34c5a70aabc0",
          "txtVehicleRegistrationNumber": "ED447RY",
          "txtVehicleDriverName": "DURLET-BOUEXIERE ISABELLE",
          "txtVehicleModel": "A4 AVANT BUSINE",
          "txtSupplierName": "A.I.G.",
          "txtDropOffTime": "12:03",
          "txtVehicleVINNumber": "WAUZZZ8K1FA105332"
       },
       {
          "eFolderID": "0900000000000000000000002502722",
          "eFolderName": "LPFR-UAT-1044359",
          "eCreationTime": "Thu Oct 30 2019 17:23:00 GMT+0100 (British Summer Time)",
          "eEntryTime": "Thu Oct 30 2019 11:23:00 GMT+0100 (British Summer Time)",
          "txtPRNNumber": "5566f0fc-e9be-484c-95d7-34c5a70aabc0",
          "txtVehicleRegistrationNumber": "EF075EH",
          "txtVehicleDriverName": "FOURGON SMH",
          "txtVehicleModel": "A4 AVANT BUSINE",
          "txtSupplierName": "A.I.G.",
          "txtDropOffTime": "12:03",
          "txtVehicleVINNumber": "WAUZZZ8K1FA105332"
       },
       {
          "eFolderID": "0900000000000100000000002502723",
          "eFolderName": "LPFR-UAT-1044360",
          "eCreationTime": "Thu Oct 30 2019 17:23:00 GMT+0100 (British Summer Time)",
          "eEntryTime": "Thu Oct 30 2019 11:23:00 GMT+0100 (British Summer Time)",
          "txtPRNNumber": "5566f0fc-e9be-484c-95d7-34c5a70aabc0",
          "txtVehicleRegistrationNumber": "EF879DN",
          "txtVehicleDriverName": "FOURGON SMH",
          "txtVehicleModel": "A4 AVANT BUSINE",
          "txtSupplierName": "A.I.G.",
          "txtDropOffTime": "12:03",
          "txtVehicleVINNumber": "WAUZZZ8K1FA105332"
       },
       {
          "eFolderID": "0900000000000000000000002502724",
          "eFolderName": "LPFR-UAT-1044361",
          "eCreationTime": "Thu Oct 30 2019 17:23:00 GMT+0100 (British Summer Time)",
          "eEntryTime": "Thu Oct 30 2019 11:23:00 GMT+0100 (British Summer Time)",
          "txtPRNNumber": "5566f0fc-e9be-484c-95d7-34c5a70aabc0",
          "txtVehicleRegistrationNumber": "EH911BQ",
          "txtVehicleDriverName": "GOSSET PATRICK",
          "txtVehicleModel": "A4 AVANT BUSINE",
          "txtSupplierName": "A.I.G.",
          "txtDropOffTime": "12:03",
          "txtVehicleVINNumber": "WAUZZZ8K1FA105332"
       },
       {
          "eFolderID": "0900000000000000000000002502725",
          "eFolderName": "LPFR-UAT-1044362",
          "eCreationTime": "Thu Oct 30 2019 17:23:00 GMT+0100 (British Summer Time)",
          "eEntryTime": "Thu Oct 30 2019 11:23:00 GMT+0100 (British Summer Time)",
          "txtPRNNumber": "5566f0fc-e9be-484c-95d7-34c5a70aabc0",
          "txtVehicleRegistrationNumber": "EH938GM",
          "txtVehicleDriverName": "LAMAZAA HELENE",
          "txtVehicleModel": "A4 AVANT BUSINE",
          "txtSupplierName": "A.I.G.",
          "txtDropOffTime": "12:03",
          "txtVehicleVINNumber": "WAUZZZ8K1FA105332"
       },
       {
          "eFolderID": "0900000000000000000000002502726",
          "eFolderName": "LPFR-UAT-1044363",
          "eCreationTime": "Thu Oct 31 2019 17:23:00 GMT+0100 (British Summer Time)",
          "eEntryTime": "Thu Oct 31 2019 11:23:00 GMT+0100 (British Summer Time)",
          "txtPRNNumber": "5566f0fc-e9be-484c-95d7-34c5a70aabc0",
          "txtVehicleRegistrationNumber": "NBN7326",
          "txtVehicleDriverName": "LESUD ARNAUD",
          "txtVehicleModel": "A4 AVANT BUSINE",
          "txtSupplierName": "A.I.G.",
          "txtDropOffTime": "12:03",
          "txtVehicleVINNumber": "WAUZZZ8K1FA105332"
       },
       {
          "eFolderID": "0900000000000000000000002502727",
          "eFolderName": "LPFR-UAT-1044364",
          "eCreationTime": "Thu Oct 31 2019 17:23:00 GMT+0100 (British Summer Time)",
          "eEntryTime": "Thu Oct 31 2019 11:23:00 GMT+0100 (British Summer Time)",
          "txtPRNNumber": "5566f0fc-e9be-484c-95d7-34c5a70aabc0",
          "txtVehicleRegistrationNumber": "HJ630X",
          "txtVehicleDriverName": "MAADOUNE AMAR",
          "txtVehicleModel": "A4 AVANT BUSINE",
          "txtSupplierName": "A.I.G.",
          "txtDropOffTime": "12:03",
          "txtVehicleVINNumber": "WAUZZZ8K1FA105332"
       },
       {
          "eFolderID": "0900000000000000000000002502728",
          "eFolderName": "LPFR-UAT-1044365",
          "eCreationTime": "Thu Oct 31 2019 17:23:00 GMT+0100 (British Summer Time)",
          "eEntryTime": "Thu Oct 31 2019 11:23:00 GMT+0100 (British Summer Time)",
          "txtPRNNumber": "5566f0fc-e9be-484c-95d7-34c5a70aabc0",
          "txtVehicleRegistrationNumber": "EY974NR",
          "txtVehicleDriverName": "ONEFINGER MARCO",
          "txtVehicleModel": "A4 AVANT BUSINE",
          "txtSupplierName": "A.I.G.",
          "txtDropOffTime": "12:03",
          "txtVehicleVINNumber": "WAUZZZ8K1FA105332"
       },
       {
          "eFolderID": "0900000000000000000000002502729",
          "eFolderName": "LPFR-UAT-1044366",
          "eCreationTime": "Thu Oct 31 2019 17:23:00 GMT+0100 (British Summer Time)",
          "eEntryTime": "Thu Oct 31 2019 11:23:00 GMT+0100 (British Summer Time)",
          "txtPRNNumber": "5566f0fc-e9be-484c-95d7-34c5a70aabc0",
          "txtVehicleRegistrationNumber": "EY523LN",
          "txtVehicleDriverName": "PARC HR PRET HR",
          "txtVehicleModel": "A4 AVANT BUSINE",
          "txtSupplierName": "A.I.G.",
          "txtDropOffTime": "12:03",
          "txtVehicleVINNumber": "WAUZZZ8K1FA105332"
       },
       {
          "eFolderID": "0900000000000000000000002502730",
          "eFolderName": "LPFR-UAT-1044367",
          "eCreationTime": "Thu Oct 31 2019 17:23:00 GMT+0100 (British Summer Time)",
          "eEntryTime": "Thu Oct 31 2019 11:23:00 GMT+0100 (British Summer Time)",
          "txtPRNNumber": "5566f0fc-e9be-484c-95d7-34c5a70aabc0",
          "txtVehicleRegistrationNumber": "ET118XA",
          "txtVehicleDriverName": "PEZIN NICOLAS",
          "txtVehicleModel": "A4 AVANT BUSINE",
          "txtSupplierName": "A.I.G.",
          "txtDropOffTime": "12:03",
          "txtVehicleVINNumber": "WAUZZZ8K1FA105332"
       },
       {
          "eFolderID": "0900000000000000000000002502731",
          "eFolderName": "LPFR-UAT-1044368",
          "eCreationTime": "Thu Oct 31 2019 17:23:00 GMT+0100 (British Summer Time)",
          "eEntryTime": "Thu Oct 31 2019 11:23:00 GMT+0100 (British Summer Time)",
          "txtPRNNumber": "5566f0fc-e9be-484c-95d7-34c5a70aabc0",
          "txtVehicleRegistrationNumber": "ES097AF",
          "txtVehicleDriverName": "PIETROFORTE BONNEFOND SOPHIE",
          "txtVehicleModel": "A4 AVANT BUSINE",
          "txtSupplierName": "A.I.G.",
          "txtDropOffTime": "12:03",
          "txtVehicleVINNumber": "WAUZZZ8K1FA105332"
       },
       {
          "eFolderID": "0900000000000000000000002502732",
          "eFolderName": "LPFR-UAT-1044369",
          "eCreationTime": "Thu Oct 10 2019 17:23:00 GMT+0100 (British Summer Time)",
          "eEntryTime": "Thu Oct 10 2019 11:23:00 GMT+0100 (British Summer Time)",
          "txtPRNNumber": "5566f0fc-e9be-484c-95d7-34c5a70aabc0",
          "txtVehicleRegistrationNumber": "EA548MP",
          "txtVehicleDriverName": "PREVOT PIERRE",
          "txtVehicleModel": "A4 AVANT BUSINE",
          "txtSupplierName": "A.I.G.",
          "txtDropOffTime": "12:03",
          "txtVehicleVINNumber": "WAUZZZ8K1FA105332"
       },
       {
          "eFolderID": "0900000000000000000000002502733",
          "eFolderName": "LPFR-UAT-1044370",
          "eCreationTime": "Thu Oct 10 2019 17:23:00 GMT+0100 (British Summer Time)",
          "eEntryTime": "Thu Oct 10 2019 11:23:00 GMT+0100 (British Summer Time)",
          "txtPRNNumber": "5566f0fc-e9be-484c-95d7-34c5a70aabc0",
          "txtVehicleRegistrationNumber": "EA387DN",
          "txtVehicleDriverName": "RICARDO",
          "txtVehicleModel": "A4 AVANT BUSINE",
          "txtSupplierName": "A.I.G.",
          "txtDropOffTime": "12:03",
          "txtVehicleVINNumber": "WAUZZZ8K1FA105332"
       },
       {
          "eFolderID": "0900000000000000000000002502734",
          "eFolderName": "LPFR-UAT-1044371",
          "eCreationTime": "Thu Oct 10 2019 17:23:00 GMT+0100 (British Summer Time)",
          "eEntryTime": "Thu Oct 10 2019 11:23:00 GMT+0100 (British Summer Time)",
          "txtPRNNumber": "5566f0fc-e9be-484c-95d7-34c5a70aabc0",
          "txtVehicleRegistrationNumber": "EA028FW",
          "txtVehicleDriverName": "SURMANI VALERIE",
          "txtVehicleModel": "A4 AVANT BUSINE",
          "txtSupplierName": "A.I.G.",
          "txtDropOffTime": "12:03",
          "txtVehicleVINNumber": "WAUZZZ8K1FA105332"
       },
       {
          "eFolderID": "0900000000000000000000002502735",
          "eFolderName": "LPFR-UAT-1044372",
          "eCreationTime": "Thu Oct 11 2019 17:23:00 GMT+0100 (British Summer Time)",
          "eEntryTime": "Thu Oct 11 2019 11:23:00 GMT+0100 (British Summer Time)",
          "txtPRNNumber": "5566f0fc-e9be-484c-95d7-34c5a70aabc0",
          "txtVehicleRegistrationNumber": "EA002MQ",
          "txtVehicleDriverName": "VLIEGHE PIERRE",
          "txtVehicleModel": "A4 AVANT BUSINE",
          "txtSupplierName": "A.I.G.",
          "txtDropOffTime": "12:03",
          "txtVehicleVINNumber": "WAUZZZ8K1FA105332"
       },
       {
          "eFolderID": "0900000000000000000000002502736",
          "eFolderName": "LPFR-UAT-1044373",
          "eCreationTime": "Thu Oct 11 2019 17:23:00 GMT+0100 (British Summer Time)",
          "eEntryTime": "Thu Oct 11 2019 11:23:00 GMT+0100 (British Summer Time)",
          "txtPRNNumber": "5566f0fc-e9be-484c-95d7-34c5a70aabc0",
          "txtVehicleRegistrationNumber": "CQ460AZ",
          "txtVehicleDriverName": "XX GALLETEAU SNCF",
          "txtVehicleModel": "A4 AVANT BUSINE",
          "txtSupplierName": "A.I.G.",
          "txtDropOffTime": "12:03",
          "txtVehicleVINNumber": "WAUZZZ8K1FA105332"
       },
       {
          "eFolderID": "0900000000000000000000002502737",
          "eFolderName": "LPFR-UAT-1044374",
          "eCreationTime": "Thu Oct 12 2019 17:23:00 GMT+0100 (British Summer Time)",
          "eEntryTime": "Thu Oct 12 2019 11:23:00 GMT+0100 (British Summer Time)",
          "txtPRNNumber": "5566f0fc-e9be-484c-95d7-34c5a70aabc0",
          "txtVehicleRegistrationNumber": "AA257AA",
          "txtVehicleDriverName": "XX GALLETEAU SNCF",
          "txtVehicleModel": "A4 AVANT BUSINE",
          "txtSupplierName": "A.I.G.",
          "txtDropOffTime": "12:03",
          "txtVehicleVINNumber": "WAUZZZ8K1FA105332"
       },
       {
          "eFolderID": "0900000000000000000000002502738",
          "eFolderName": "LPFR-UAT-1044375",
          "eCreationTime": "Thu Oct 14 2019 17:23:00 GMT+0100 (British Summer Time)",
          "eEntryTime": "Thu Oct 14 2019 11:23:00 GMT+0100 (British Summer Time)",
          "txtPRNNumber": "5566f0fc-e9be-484c-95d7-34c5a70aabc0",
          "txtVehicleRegistrationNumber": "CM592JZ",
          "txtVehicleDriverName": "SURMANI VALERIE",
          "txtVehicleModel": "A4 AVANT BUSINE",
          "txtSupplierName": "A.I.G.",
          "txtDropOffTime": "12:03",
          "txtVehicleVINNumber": "WAUZZZ8K1FA105332"
       },
       {
          "eFolderID": "0900000000000000000000002502739",
          "eFolderName": "LPFR-UAT-1044376",
          "eCreationTime": "Thu Oct 15 2019 17:23:00 GMT+0100 (British Summer Time)",
          "eEntryTime": "Thu Oct 15 2019 11:23:00 GMT+0100 (British Summer Time)",
          "txtPRNNumber": "5566f0fc-e9be-484c-95d7-34c5a70aabc0",
          "txtVehicleRegistrationNumber": "CN150KJ",
          "txtVehicleDriverName": "LE BERVET YANN",
          "txtVehicleModel": "A4 AVANT BUSINE",
          "txtSupplierName": "A.I.G.",
          "txtDropOffTime": "12:03",
          "txtVehicleVINNumber": "WAUZZZ8K1FA105332"
       },
       {
          "eFolderID": "0900000000000000000000002502740",
          "eFolderName": "LPFR-UAT-1044377",
          "eCreationTime": "Thu Oct 16 2019 17:23:00 GMT+0100 (British Summer Time)",
          "eEntryTime": "Thu Oct 16 2019 11:23:00 GMT+0100 (British Summer Time)",
          "txtPRNNumber": "5566f0fc-e9be-484c-95d7-34c5a70aabc0",
          "txtVehicleRegistrationNumber": "BT350XP",
          "txtVehicleDriverName": "LE BERVET YANN",
          "txtVehicleModel": "A4 AVANT BUSINE",
          "txtSupplierName": "A.I.G.",
          "txtDropOffTime": "12:03",
          "txtVehicleVINNumber": "WAUZZZ8K1FA105332"
       },
       {
          "eFolderID": "0900000000000000000000002502741",
          "eFolderName": "LPFR-UAT-1044378",
          "eCreationTime": "Thu Oct 17 2019 17:23:00 GMT+0100 (British Summer Time)",
          "eEntryTime": "Thu Oct 17 2019 11:23:00 GMT+0100 (British Summer Time)",
          "txtPRNNumber": "5566f0fc-e9be-484c-95d7-34c5a70aabc0",
          "txtVehicleRegistrationNumber": "5AY5127",
          "txtVehicleDriverName": "JAYET ERIC",
          "txtVehicleModel": "A4 AVANT BUSINE",
          "txtSupplierName": "A.I.G.",
          "txtDropOffTime": "12:03",
          "txtVehicleVINNumber": "WAUZZZ8K1FA105332"
       },
       {
          "eFolderID": "0900000000000000000000002502742",
          "eFolderName": "LPFR-UAT-1044379",
          "eCreationTime": "Thu Oct 18 2019 17:23:00 GMT+0100 (British Summer Time)",
          "eEntryTime": "Thu Oct 18 2019 11:23:00 GMT+0100 (British Summer Time)",
          "txtPRNNumber": "5566f0fc-e9be-484c-95d7-34c5a70aabc0",
          "txtVehicleRegistrationNumber": "152D12424",
          "txtVehicleDriverName": "JAYET ERIC",
          "txtVehicleModel": "A4 AVANT BUSINE",
          "txtSupplierName": "A.I.G.",
          "txtDropOffTime": "12:03",
          "txtVehicleVINNumber": "WAUZZZ8K1FA105332"
       },
       {
          "eFolderID": "0900000000000000000000002502743",
          "eFolderName": "LPFR-UAT-1044380",
          "eCreationTime": "Thu Oct 18 2019 17:23:00 GMT+0100 (British Summer Time)",
          "eEntryTime": "Thu Oct 18 2019 11:23:00 GMT+0100 (British Summer Time)",
          "txtPRNNumber": "5566f0fc-e9be-484c-95d7-34c5a70aabc0",
          "txtVehicleRegistrationNumber": "12D16821",
          "txtVehicleDriverName": "FABRE JEROME TEST JJJJ",
          "txtVehicleModel": "A4 AVANT BUSINE",
          "txtSupplierName": "A.I.G.",
          "txtDropOffTime": "12:03",
          "txtVehicleVINNumber": "WAUZZZ8K1FA105332"
       },
       {
          "eFolderID": "0900000000000000000000002502744",
          "eFolderName": "LPFR-UAT-1044381",
          "eCreationTime": "Thu Oct 18 2019 17:23:00 GMT+0100 (British Summer Time)",
          "eEntryTime": "Thu Oct 18 2019 11:23:00 GMT+0100 (British Summer Time)",
          "txtPRNNumber": "5566f0fc-e9be-484c-95d7-34c5a70aabc0",
          "txtVehicleRegistrationNumber": "11D37323",
          "txtVehicleDriverName": "DUPUY JOCELYN",
          "txtVehicleModel": "A4 AVANT BUSINE",
          "txtSupplierName": "A.I.G.",
          "txtDropOffTime": "12:03",
          "txtVehicleVINNumber": "WAUZZZ8K1FA105332"
       },
       {
          "eFolderID": "0900000000000000000000002502777",
          "eFolderName": "LPFR-UAT-1044382",
          "eCreationTime": "Thu Oct 19 2019 17:23:00 GMT+0100 (British Summer Time)",
          "eEntryTime": "Thu Oct 19 2019 11:23:00 GMT+0100 (British Summer Time)",
          "txtPRNNumber": "5566f0fc-e9be-484c-95d7-34c5a70aabc0",
          "txtVehicleRegistrationNumber": "11D10078",
          "txtVehicleDriverName": "DUPUY JOCELYN",
          "txtVehicleModel": "A4 AVANT BUSINE",
          "txtSupplierName": "A.I.G.",
          "txtDropOffTime": "12:03",
          "txtVehicleVINNumber": "WAUZZZ8K1FA105332"
       }
    ]
 }